{
  "type": "object",
  "properties": {
    "total_boards": {
      "type": "integer"
    },
    "total_tasks": {
      "type": "integer"
    },
    "total_incomplete_tasks": {
      "type": "integer"
    }
  },
  "required": [
    "total_boards",
    "total_tasks",
    "total_incomplete_tasks"
  ]
}
